Android_Monkey_Analysis/analysis_bugreport/Meizu_A10ABNFL55MB_bugreport_out/raw/am_logs.vcd
$timescale 1ms $end
$scope am_logs $end
$var wire 1 a1 com.tianyancha.skyeye/.MainActivity $end
$var wire 1 a2 com.yunos.lifecard $end
$var wire 1 a51 com.android.printspooler $end
$var wire 1 a25 com.tianyancha.skyeye/.SplashPage $end
$var wire 1 a16 com.tianyancha.skyeye/com.taobao.accs.ChannelService $end
$var wire 1 a9 com.android.defcontainer $end
$var wire 1 a23 com.tencent.mobileqq $end
$var wire 1 a17 com.tianyancha.skyeye $end
$var wire 1 a8 com.alipay.android.app $end
$var wire 1 a43 com.android.settings/.AppPicker $end
$var wire 1 a14 com.tianyancha.skyeye/.detail.datadimension.companyinfo.CompanyInfoActivity $end
$var wire 1 a15 com.tianyancha.skyeye:channel $end
$var wire 1 a35 com.android.settings/.SubSettings $end
$var wire 1 a18 com.tianyancha.skyeye/org.android.agoo.accs.AgooService $end
$var wire 1 a21 com.meizu.media.music $end
$var wire 1 a4 com.android.providers.calendar $end
$var wire 1 a48 com.tianyancha.skyeye/.LoginActivity $end
$var wire 1 a38 com.android.externalstorage $end
$var wire 1 a33 android.process.acore $end
$var wire 1 a42 com.meizu.perfui $end
$var wire 1 a39 com.tencent.mobileqq/.activity.SplashActivity $end
$var wire 1 a11 com.meizu.customizecenter $end
$var wire 1 a20 com.android.keychain $end
$var wire 1 a5 com.meizu.net.search $end
$var wire 1 a13 com.android.calendar:remote $end
$var wire 1 a46 com.android.systemui/.usb.UsbDebuggingActivity $end
$var wire 1 a29 com.svox.pico $end
$var wire 1 a36 com.android.settings/.deviceinfo.Status $end
$var wire 1 a40 com.tencent.mobileqq:qzone $end
$var wire 1 a24 com.meizu.flyme.launcher/.Launcher $end
$var wire 1 a27 com.tianyancha.skyeye/.AdvertActivity $end
$var wire 1 a12 com.tianyancha.skyeye/.detail.company.FirmDetailActivity $end
$var wire 1 a30 com.meizu.filemanager $end
$var wire 1 a41 com.meizu.perfui/.settings.SettingsActivity $end
$var wire 1 a19 com.tianyancha.skyeye/com.taobao.accs.data.MsgDistributeService $end
$var wire 1 a37 com.meizu.documentsui $end
$var wire 1 a22 com.android.browser $end
$var wire 1 a31 com.android.musicfx $end
$var wire 1 a10 com.tianyancha.skyeye/.search.SearchCompanyActivity $end
$var wire 1 a26 com.android.packageinstaller $end
$var wire 1 a32 com.meizu.media.gallery $end
$var wire 1 a7 com.meizu.flyme.update $end
$var wire 1 a50 com.meizu.media.video $end
$var wire 1 a6 com.meizu.media.reader $end
$var wire 1 a49 com.tianyancha.skyeye/com.umeng.message.UmengMessageCallbackHandlerService $end
$var wire 1 a28 com.meizu.flyme.weather $end
$var wire 1 a34 com.android.settings/.Settings $end
$var wire 1 a47 com.tianyancha.skyeye/.activity.LaunchActivity $end
$var wire 1 a3 com.yunos.alimobilesearch $end
$var wire 1 a44 com.tencent.mobileqq:TMAssistantDownloadSDKService $end
$var wire 1 a45 com.mediatek.mtklogger $end
$upscope $end
$enddefinitions $end
#14642528730
bX a1
b0 a2
b0 a51
bZ a25
b- a16
bZ a9
bZ a23
b0 a17
b0 a8
bZ a43
bZ a14
b0 a15
bZ a35
b- a18
bZ a21
bZ a4
bZ a48
b0 a38
bZ a33
b0 a42
bZ a39
bZ a11
b0 a20
b0 a5
bZ a13
bZ a46
bZ a29
bZ a36
b0 a40
b- a24
bZ a27
bZ a12
bZ a30
bZ a41
b- a19
b0 a37
b0 a22
bZ a31
bZ a10
bZ a26
bZ a32
bZ a7
b0 a50
b0 a6
b- a49
bZ a28
bZ a34
bZ a47
b0 a3
b0 a44
b0 a45
#14642529744
b- a1
#14643132842
bX a1
#14643132859
bZ a2
#14643133718
bZ a3
#14643133953
bZ a5
#14643133967
b0 a4
#14643134316
bZ a6
#14643134590
bZ a8
#14643134627
b0 a7
#14643134756
b0 a9
#14643134938
b- a10
#14643134939
b- a1
#14643134945
bX a10
#14643137788
b0 a11
#14643143025
b- a12
#14643143025
b- a10
#14643143030
bX a12
#14643146457
b0 a13
#14643146895
b- a14
#14643146896
b- a12
#14643146903
bX a14
#14643164339
b0 a2
#14643236543
b- a12
#14643236544
b- a14
#14643236555
bX a12
#14643316936
bZ a13
#14643316981
b- a12
#14643689838
bZ a9
#14643701172
bZ a16
#14643701174
bZ a18
#14643701175
bZ a19
#14643701485
bZ a1
#14643701485
bZ a10
#14643701486
bZ a12
#14643701486
bZ a14
#14643701487
bZ a12
#14643702707
bZ a20
#14643703062
bZ a11
#14643705942
b0 a21
#14643764365
b0 a3
#14646828140
bZ a22
#14646829384
b0 a5
#14648773329
b0 a23
#14651921288
bX a24
#14651921304
bZ a2
#14651922146
bZ a3
#14651922247
b0 a8
#14651922414
bZ a5
#14651922447
b0 a13
#14651922735
bZ a8
#14651922792
b- a25
#14651922792
b- a24
#14651922839
bZ a17
#14651923066
bX a25
#14651923637
b0 a20
#14651923687
b0 a26
#14651925832
b- a27
#14651925832
b- a25
#14651925838
bX a27
#14651926641
bZ a25
#14651927461
b- a1
#14651927461
b- a27
#14651927466
bX a1
#14651927967
b0 a28
#14651929926
bZ a27
#14651933065
b- a10
#14651933065
b- a1
#14651933071
bX a10
#14651934591
bZ a15
#14651939187
b- a12
#14651939188
b- a10
#14651939193
bX a12
#14651943985
b- a14
#14651943985
b- a12
#14651943994
bX a14
#14651952728
b0 a2
#14652158439
b0 a29
#14652256883
bZ a13
#14652257467
b- a14
#14652423242
bZ a28
#14652455133
b0 a30
#14652634351
b0 a31
#14653280572
bX a14
#14653280589
bZ a2
#14653282017
b- a14
#14653282022
bX a12
#14653282098
bZ a14
#14653285994
b0 a32
#14653311924
b0 a2
#14653582665
b- a12
#14653703241
bX a12
#14653703259
bZ a2
#14653705090
b- a12
#14653705095
bX a24
#14653734433
b0 a2
#14654081803
b- a24
#14654308143
b0 a15
#14654308143
bZ a16
#14654308226
b0 a11
#14654308239
b0 a17
#14654308239
bZ a19
#14654308239
bZ a18
#14654308257
b0 a33
#14654309164
bZ a15
#14654310496
bZ a17
#14654311932
b0 a9
#14654665109
bX a24
#14654665125
bZ a2
#14654696333
b0 a2
#14654849180
b- a24
#14654849192
bX a12
#14655125397
b- a12
#14655125405
bX a10
#14655126716
bZ a12
#14655129257
b- a10
#14655129274
bX a1
#14655131610
bZ a10
#14655133226
b- a1
#14655133231
bX a24
#14655173089
b- a34
#14655173089
b- a24
#14655173100
bX a34
#14655174918
bZ a7
#14655188312
b- a35
#14655188312
b- a34
#14655188328
bX a35
#14655190574
b- a35
#14655190578
bX a34
#14655190877
bZ a35
#14655202184
b- a35
#14655202184
b- a34
#14655202195
bX a35
#14655206860
b- a35
#14655206861
b- a35
#14655206876
bX a35
#14655289893
b- a35
#14655289900
bX a35
#14655290190
bZ a35
#14655291350
b- a35
#14655291370
bX a34
#14655291678
bZ a35
#14655294262
b- a34
#14655294268
bX a24
#14655381197
b- a24
#14655381208
bX a34
#14655384735
b- a35
#14655384735
b- a34
#14655384743
bX a35
#14655387770
b- a36
#14655387771
b- a35
#14655387786
bX a36
#14655512624
b- a36
#14655512628
bX a24
#14655536469
b- a24
#14655536480
bX a1
#14655538459
b- a1
#14655538463
bX a24
#14655752884
bZ a9
#14655753956
bZ a16
#14655753957
bZ a19
#14655753960
bZ a1
#14655755016
bZ a33
#14655755232
bZ a31
#14655755287
bZ a30
#14655755386
bZ a20
#14655755455
bZ a26
#14655755568
bZ a37
#14655755671
bZ a38
#14655760085
b0 a3
#14655760088
b0 a5
#14655760094
b0 a6
#14655760103
b0 a22
#14655849065
b- a24
#14655849069
bZ a35
#14655849071
bZ a36
#14655849081
bX a34
#14655852154
b- a35
#14655852154
b- a34
#14655852163
bX a35
#14655854705
b- a35
#14655854711
bX a34
#14655855005
bZ a35
#14655866186
b- a35
#14655866187
b- a34
#14655866194
bX a35
#14655870758
b- a35
#14655870758
b- a35
#14655870772
bX a35
#14655900062
b0 a13
#14656084906
b- a35
#14656084910
bX a24
#14656110867
b- a24
#14656110869
bZ a35
#14656110871
bZ a35
#14656110884
bX a34
#14656112504
b- a34
#14656112508
bX a24
#14656114412
b- a39
#14656114413
b- a24
#14656114433
bZ a23
#14656114446
bX a39
#14656122038
bZ a40
#14656138359
b- a39
#14656138364
bX a24
#14656269687
b- a24
#14656269698
bX a34
#14656279273
b- a35
#14656279274
b- a34
#14656279290
bX a35
#14656280857
b- a35
#14656280863
bX a34
#14656281155
bZ a35
#14656282817
b- a35
#14656282818
b- a34
#14656282830
bX a35
#14656287941
b- a35
#14656287941
b- a35
#14656287958
bX a35
#14656290288
b- a35
#14656290293
bX a35
#14656290584
bZ a35
#14656294823
b- a35
#14656294823
b- a35
#14656294838
bX a35
#14656373445
b- a41
#14656373446
b- a35
#14656373482
bZ a42
#14656373498
bX a41
#14656375516
b- a41
#14656375522
bX a35
#14656375820
bZ a41
#14656400674
b- a43
#14656400674
b- a35
#14656400686
bX a43
#14656401711
b- a43
#14656401719
bX a35
#14656401805
bZ a43
#14656410219
b- a35
#14656410233
bX a35
#14656410524
bZ a35
#14656412675
b- a35
#14656412675
b- a35
#14656412683
bX a35
#14656420668
bZ a44
#14656426399
b- a35
#14656426407
bX a24
#14656426683
b0 a44
#14656477954
b0 a8
#14656578957
b0 a40
#14656728211
bZ a13
#14656728782
b- a24
#14656881365
bZ a45
#14656881483
bZ a21
#14656891532
b0 a45
#14656899209
bZ a45
#14656909311
b0 a45
#14656983591
bX a24
#14656983609
bZ a2
#14656983815
bZ a40
#14656984782
bZ a3
#14656985036
bZ a5
#14656985423
bZ a6
#14656985846
bZ a8
#14656986890
b0 a33
#14656988970
b0 a31
#14656988990
b- a46
#14656988992
b- a24
#14656988997
bX a46
#14656992124
b- a46
#14656992129
bX a24
#14656992140
bZ a46
#14656994572
b0 a28
#14657015381
b0 a2
#14657024651
b0 a20
#14657024681
b0 a37
#14657292732
b- a24
#14657351369
bX a24
#14657351386
bZ a2
#14657352107
bZ a28
#14657355331
b0 a38
#14657355350
b0 a30
#14657356923
b- a24
#14657356926
bZ a35
#14657356927
bZ a35
#14657356939
bX a34
#14657361432
b- a35
#14657361433
b- a34
#14657361449
bX a35
#14657363230
b- a36
#14657363231
b- a35
#14657363246
bX a36
#14657382631
b0 a2
#14657542594
b- a36
#14657542598
bX a24
#14657578730
b0 a26
#14657579175
bZ a33
#14657579430
bZ a11
#14657579719
bZ a32
#14657580105
bZ a31
#14657580174
bZ a30
#14657580353
bZ a29
#14657582656
b- a25
#14657582657
b- a24
#14657582702
bZ a17
#14657582716
bZ a26
#14657582741
bX a25
#14657582871
b0 a42
#14657585643
b0 a6
#14657585715
b0 a13
#14657585725
b0 a21
#14657593464
bZ a15
#14657610147
b- a47
#14657610149
b- a25
#14657610227
bX a47
#14657611612
bZ a25
#14657633075
b- a1
#14657633076
b- a47
#14657633079
bX a1
#14657638458
b- a1
#14657638583
b0 a17
#14657638583
bZ a18
#14657638583
bZ a19
#14657638626
bZ a17
#14657638646
bX a47
#14657643920
b- a1
#14657643920
b- a47
#14657643927
bX a1
#14657646115
bZ a47
#14657945522
bZ a13
#14657946177
b- a1
#14658099873
b0 a3
#14658109445
bX a1
#14658109446
b- a1
#14658161747
bX a1
#14658161751
b- a1
#14658247342
b0 a40
#14658256434
bX a1
#14658256435
b- a1
#14658311446
bX a1
#14658311450
b- a1
#14658344223
bX a1
#14658344225
b- a1
#14658402508
bX a1
#14658402510
b- a1
#14658431002
bX a1
#14658431004
b- a1
#14658608450
bX a1
#14658608508
bZ a2
#14658609074
bZ a40
#14658609811
bZ a3
#14658610234
bZ a6
#14658610871
b0 a5
#14658610872
b0 a8
#14658620921
b0 a28
#14658640381
b0 a2
#14658909210
b- a1
#14659209933
b0 a40
#14659380071
b0 a9
#14659380222
b0 a31
#14659380271
b0 a30
#14659491264
bX a1
#14659491283
bZ a2
#14659491472
bZ a40
#14659492145
bZ a28
#14659492211
b0 a32
#14659492694
bZ a5
#14659493005
bZ a8
#14659493200
b0 a29
#14659493291
b0 a11
#14659493740
b0 a26
#14659522671
b0 a2
#14659792026
b- a1
#14660092794
b0 a40
#14660339426
bX a1
#14660339448
bZ a2
#14660339916
bZ a40
#14660370731
b0 a2
#14660536666
b- a48
#14660536667
b- a1
#14660536672
bX a48
#14660837263
b- a48
#14661138014
b0 a40
#14661592402
bZ a48
#14661592404
bX a1
#14661592404
b- a1
#14661593334
bX a1
#14661593353
bZ a2
#14661594102
bZ a40
#14661624632
b0 a2
#14661894062
b- a1
#14662013018
bX a1
#14662013022
b- a1
#14662031132
bX a1
#14662031136
b- a1
#14662056656
bX a1
#14662056659
b- a1
#14662194797
b0 a40
#14662362628
bX a1
#14662362652
bZ a2
#14662362821
bZ a40
#14662393977
b0 a2
#14662663364
b- a1
#14662964056
b0 a40
#14663346256
bX a1
#14663346279
bZ a2
#14663346541
bZ a40
#14663377681
b0 a2
#14663705170
b- a1
#14663782278
bX a1
#14663782289
b- a1
#14664005874
b0 a40
#14664511561
bX a1
#14664511564
b- a1
#14664547518
bX a1
#14664547520
b- a1
#14664564147
bX a1
#14664564149
b- a1
#14664672382
bX a1
#14664672384
b- a1
#14665437012
bX a1
#14665437014
b- a1
#14665439572
bZ a16
#14665439575
bZ a19
#14665439593
bX a36
#14665439593
b- a36
#14665439603
bZ a1
#14665491492
b- a1
#14665491509
bZ a17
#14665491525
bX a1
#14665491530
b- a1
#14665493910
bZ a49
#14665493917
bX a36
#14665493917
b- a36
#14665493923
bZ a1
#14665571944
b- a1
#14665571960
bZ a17
#14665571976
bX a1
#14665571980
b- a1
#14665574430
bZ a19
#14666749275
b- a1
#14666749292
bZ a17
#14666749309
bX a1
#14666749313
b- a1
#14666751815
bZ a19
#14666954525
bZ a50
#14667033802
b- a1
#14667033819
bZ a17
#14667033837
bX a1
#14667033841
b- a1
#14667036357
bZ a19
#14667902731
b- a1
#14667902747
bZ a17
#14667902764
bX a1
#14667902768
b- a1
#14667905288
bZ a19
#14667917559
bX a24
#14667917583
bZ a2
#14667918038
bZ a40
#14667918660
b0 a33
#14667937369
b- a1
#14667937370
b- a24
#14667937413
bZ a17
#14667937426
bX a1
#14667939705
bZ a19
#14667939728
bX a24
#14667949151
b0 a2
#14667958015
b- a25
#14667958017
b- a24
#14667958046
bZ a17
#14667958075
bX a25
#14667959404
b- a27
#14667959404
b- a25
#14667959410
bX a27
#14667959447
b- a1
#14667959447
b- a27
#14667959451
bX a1
#14667961752
bZ a27
#14667962158
bZ a25
#14667968432
bZ a15
#14667993521
bZ a51
#14668005944
bZ a16
#14668005945
bZ a19
#14668005945
bZ a18
#14668005957
bX a24
#14668056639
b- a1
#14668056639
b- a24
#14668056657
bZ a17
#14668056669
bX a1
#14668058871
bZ a19
#14668058882
bX a24
#14668258575
b- a24
#14668321321
bZ a9
#14668323576
bZ a33
#14668323829
bZ a31
#14668323956
bZ a30
#14668324054
bZ a20
#14668324135
bZ a26
#14668324301
bZ a11
#14668324696
bZ a32
#14668325204
bZ a29
#14668326241
b0 a50
#14668328103
b0 a8
#14668328166
b0 a6
#14668328181
b0 a3
#14668328183
b0 a13
#14668559522
b0 a40
#14668618442
b- a1
#14668618457
bZ a17
#14668618479
bX a1
#14668618483
b- a1
#14668620836
bZ a49
#14668620837
bZ a19
#14668620846
bX a36
#14668620846
b- a36
#14668620853
bZ a1
#14668636094
bX a24
#14668636114
bZ a2
#14668637014
bZ a3
#14668637229
bZ a6
#14668637514
bZ a8
#14668639162
bZ a40
#14668639331
b- a25
#14668639332
b- a24
#14668639353
bZ a17
#14668639418
bX a25
#14668640587
b0 a51
#14668642167
b- a27
#14668642168
b- a25
#14668642176
bX a27
#14668642211
b0 a5
#14668642214
b0 a28
#14668642221
b0 a20
#14668642237
b- a1
#14668642237
b- a27
#14668642242
bX a1
#14668645526
bZ a27
#14668645891
bZ a25
#14668650864
b- a1
#14668650882
bX a24
#14668651004
bZ a15
#14668667591
b0 a2
