Android_Monkey_Analysis/analysis_bugreport/samsung_59ea8978_bugreport_out/raw/am_logs.vcd
$timescale 1ms $end
$scope am_logs $end
$var wire 1 a28 com.sec.android.app.myfiles $end
$var wire 1 a63 com.tianyancha.skyeye/.MainActivity $end
$var wire 1 a24 com.sec.android.app.launcher/com.android.launcher2.Launcher $end
$var wire 1 a89 com.bst.airmessage/.AirMsgUiService $end
$var wire 1 a109 com.sec.android.pagebuddynotisvc/.PageBuddyNotiSvc $end
$var wire 1 a84 com.tencent.mobileqq/.msf.service.MsfService $end
$var wire 1 a17 com.sec.android.service.health $end
$var wire 1 a18 com.samsung.android.sconnect $end
$var wire 1 a45 com.android.defcontainer $end
$var wire 1 a66 com.android.contacts/.activities.PeopleActivity $end
$var wire 1 a77 com.tencent.mobileqq $end
$var wire 1 a52 com.tencent.mobileqq/com.tencent.tmdownloader.TMAssistantDownloadService $end
$var wire 1 a98 com.policydm $end
$var wire 1 a108 com.sec.android.pagebuddynotisvc $end
$var wire 1 a39 com.sec.android.app.themechooser $end
$var wire 1 a9 com.samsung.android.app.mirrorlink $end
$var wire 1 a50 com.tianyancha.skyeye:channel $end
$var wire 1 a91 com.samsung.hs20provider $end
$var wire 1 a80 com.tianyancha.skyeye/org.android.agoo.accs.AgooService $end
$var wire 1 a34 com.sec.android.GeoLookout $end
$var wire 1 a59 com.qualcomm.atfwd/.AtFwdService $end
$var wire 1 a88 com.bst.airmessage $end
$var wire 1 a67 com.android.contacts $end
$var wire 1 a13 com.baidu.searchbox_samsung:bdservice_v1 $end
$var wire 1 a83 com.tencent.mobileqq/.activity.SplashActivity $end
$var wire 1 a78 com.tencent.mobileqq:MSF $end
$var wire 1 a1 com.samsung.android.coreapps $end
$var wire 1 a120 com.samsung.clipboardsaveservice $end
$var wire 1 a57 com.tencent.android.qqdownloader:wns $end
$var wire 1 a110 com.sec.android.app.videoplayer $end
$var wire 1 a22 com.samsung.android.asksmanager $end
$var wire 1 a36 com.samsung.helphub $end
$var wire 1 a72 com.tencent.mm:exdevice $end
$var wire 1 a119 com.sec.face:FaceProvider $end
$var wire 1 a54 com.tencent.android.qqdownloader:daemon $end
$var wire 1 a56 com.tencent.android.qqdownloader:tools $end
$var wire 1 a6 com.samsung.android.bbc.bbcagent $end
$var wire 1 a37 com.samsung.android.sm $end
$var wire 1 a8 com.wsomacp $end
$var wire 1 a33 com.samsung.android.sm.provider $end
$var wire 1 a128 com.tianyancha.skyeye/com.taobao.accs.data.MsgDistributeService $end
$var wire 1 a38 com.samsung.festivalwallpaper $end
$var wire 1 a82 flipboard.boxer.app/flipboard.boxer.gui.FeedActivity $end
$var wire 1 a123 com.sec.android.widgetapp.SPlannerAppWidget $end
$var wire 1 a127 com.tianyancha.skyeye/.WebDetailActivity $end
$var wire 1 a87 com.tencent.android.qqdownloader/com.tencent.assistant.daemon.CoreService $end
$var wire 1 a21 com.samsung.android.app.sreminder:reminderservice $end
$var wire 1 a111 com.tianyancha.skyeye/.FeedBackPage $end
$var wire 1 a3 com.samsung.android.intelligenceservice2 $end
$var wire 1 a102 com.wssyncmldm $end
$var wire 1 a115 com.sec.android.app.music:provider $end
$var wire 1 a92 com.samsung.android.app.FileShareClient $end
$var wire 1 a30 com.android.mms $end
$var wire 1 a12 com.samsung.android.sdk.samsunglink $end
$var wire 1 a29 com.sec.spp.push:RemoteDlcProcess $end
$var wire 1 a64 com.android.systemui/.recents.SeparatedRecentsActivity $end
$var wire 1 a55 com.tencent.android.qqdownloader $end
$var wire 1 a96 com.sec.knox.switcher $end
$var wire 1 a99 com.osp.app.signin $end
$var wire 1 a41 com.tencent.mobileqq:tool $end
$var wire 1 a65 com.sec.android.gallery3d $end
$var wire 1 a49 com.tianyancha.skyeye/.activity.LaunchActivity $end
$var wire 1 a124 com.android.calendar $end
$var wire 1 a75 com.android.settings $end
$var wire 1 a15 com.sec.android.app.shealth $end
$var wire 1 a16 com.samsung.android.app.assistantmenu $end
$var wire 1 a107 com.android.exchange $end
$var wire 1 a47 com.tianyancha.skyeye/.SplashPage $end
$var wire 1 a68 com.android.settings/.Settings$WifiSettingsActivity $end
$var wire 1 a113 com.tianyancha.skyeye/.activity.ResetPasswordActivity $end
$var wire 1 a79 com.tianyancha.skyeye/com.taobao.accs.ChannelService $end
$var wire 1 a71 com.tencent.mm $end
$var wire 1 a97 com.samsung.android.sm.policy $end
$var wire 1 a48 com.tianyancha.skyeye $end
$var wire 1 a126 com.samsung.aasaservice/.AASAService $end
$var wire 1 a11 com.sec.kidsplat.installer $end
$var wire 1 a19 com.samsung.android.app.sreminder $end
$var wire 1 a32 com.sec.android.app.camera $end
$var wire 1 a4 com.sec.android.provider.badge $end
$var wire 1 a117 com.tianyancha.skyeye/.activity.ContactUsActivity $end
$var wire 1 a74 com.android.settings/.SubSettings $end
$var wire 1 a70 com.tencent.mm/.ui.account.LoginPasswordUI $end
$var wire 1 a121 com.android.providers.calendar $end
$var wire 1 a112 com.tianyancha.skyeye/.LoginActivity $end
$var wire 1 a118 com.android.systemui:screenshot $end
$var wire 1 a122 com.sec.android.widget.festivalmemorywidget $end
$var wire 1 a62 com.tencent.engine/.DemoSecureService $end
$var wire 1 a26 com.sec.android.widgetapp.activeapplicationwidget $end
$var wire 1 a93 com.samsung.android.app.FileShareServer $end
$var wire 1 a2 com.samsung.android.sm.devicesecurity $end
$var wire 1 a101 com.sec.android.app.sbrowser:CustomLogger $end
$var wire 1 a10 com.android.keychain $end
$var wire 1 a35 com.samsung.android.app.filterinstaller $end
$var wire 1 a73 com.android.settings/.GridSettings $end
$var wire 1 a114 com.sec.android.app.music:service $end
$var wire 1 a103 com.sec.android.app.shealth/com.samsung.android.service.health.HealthService $end
$var wire 1 a46 com.samsung.aasaservice $end
$var wire 1 a53 com.tencent.android.qqdownloader/com.tencent.pangu.link.LinkProxyActivity $end
$var wire 1 a58 com.qualcomm.telephony $end
$var wire 1 a116 com.tianyancha.skyeye/.camera.ScanImageActivity $end
$var wire 1 a31 com.samsung.android.provider.shootingmodeprovider $end
$var wire 1 a105 com.samsung.android.service.travel $end
$var wire 1 a44 com.sec.android.app.shealth:remote $end
$var wire 1 a106 com.android.email $end
$var wire 1 a23 com.android.packageinstaller/.permission.ui.ManagePermissionsActivity $end
$var wire 1 a76 com.tencent.mobileqq/.filemanager.fileviewer.FileBrowserActivity $end
$var wire 1 a104 com.sec.android.widgetapp.ap.hero.cmaweather $end
$var wire 1 a60 com.tencent.android.qqdownloader:connect $end
$var wire 1 a100 com.sec.android.soagent $end
$var wire 1 a94 com.samsung.android.securitylogagent $end
$var wire 1 a27 com.bst.floatingmsgproxy $end
$var wire 1 a5 com.sec.enterprise.knox.cloudmdm.smdms $end
$var wire 1 a86 com.tencent.mm:push $end
$var wire 1 a40 com.sec.android.app.sbrowser $end
$var wire 1 a25 com.samsung.groupcast $end
$var wire 1 a85 com.samsung.dcm:DCMService $end
$var wire 1 a81 com.android.mms/.ui.ConversationComposer $end
$var wire 1 a42 com.android.packageinstaller $end
$var wire 1 a61 com.tencent.engine $end
$var wire 1 a20 com.samsung.knox.rcp.components $end
$var wire 1 a14 com.sec.android.app.samsungapps $end
$var wire 1 a95 com.sec.android.diagmonagent $end
$var wire 1 a125 com.sec.android.widget.greetingcardwidget $end
$var wire 1 a43 com.sec.android.app.popupuireceiver $end
$var wire 1 a51 com.tencent.mobileqq:TMAssistantDownloadSDKService $end
$var wire 1 a90 com.bst.airmessage/.host.AirMessageService $end
$var wire 1 a7 com.samsung.android.app.watchmanagerstub $end
$var wire 1 a69 com.tencent.mm/.ui.LauncherUI $end
$upscope $end
$enddefinitions $end
#34276309820
bZ a28
bZ a63
b- a24
b- a89
b- a109
b- a84
bZ a17
b0 a18
bZ a45
b- a66
bZ a77
b- a52
b0 a98
bZ a108
b0 a39
b0 a9
b0 a50
b0 a91
b- a80
b0 a34
b- a59
bZ a88
bZ a67
bZ a13
b- a83
bZ a78
b0 a1
b0 a120
b0 a57
b0 a110
bZ a22
bZ a36
bZ a72
b0 a119
b0 a54
b0 a56
b0 a6
b0 a37
b0 a8
bZ a33
b- a128
b0 a38
b- a82
b0 a123
bZ a127
b- a87
bZ a21
bZ a111
bZ a3
b0 a102
b0 a115
b0 a92
bZ a30
bZ a12
b0 a29
b- a64
b0 a55
b0 a96
b0 a99
bZ a41
bZ a65
bZ a49
b0 a124
bZ a75
bZ a15
b0 a16
b0 a107
bZ a47
b- a68
bZ a113
b- a79
bZ a71
b0 a97
b0 a48
b- a126
bZ a11
bZ a19
b0 a32
b0 a4
bZ a117
b- a74
b- a70
b0 a121
bZ a112
b0 a118
b0 a122
b- a62
b0 a26
b0 a93
b0 a2
b0 a101
bZ a10
bZ a35
b- a73
b0 a114
b- a103
b0 a46
bZ a53
bZ a58
bZ a116
bZ a31
b0 a105
bZ a44
b0 a106
bX a23
b- a76
b0 a104
b0 a60
b0 a100
b0 a94
b0 a27
bZ a5
bZ a86
bZ a40
bZ a25
b0 a85
b- a81
bZ a42
bZ a61
b0 a20
b0 a14
b0 a95
b0 a125
b0 a43
bZ a51
b- a90
bZ a7
b- a69
#34276310010
bZ a1
#34276310530
bZ a2
#34276310550
b0 a3
#34276310570
bZ a4
#34276310620
b0 a5
#34276310630
bZ a6
#34276310650
b0 a7
#34276310730
bZ a8
#34276310780
bZ a9
#34276310790
b0 a10
#34276310800
b0 a11
#34276310890
bZ a11
#34276310910
b0 a12
#34276310960
bZ a12
#34276310970
b0 a13
#34276311250
bZ a14
#34276311310
b0 a15
#34276311630
bZ a16
#34276311720
b0 a17
#34276311770
bZ a18
#34276311790
b0 a19
#34276311860
bZ a20
#34276311890
b0 a21
#34276311970
b0 a22
#34276312100
bZ a15
#34276312270
b- a23
#34276312300
bX a24
#34276312740
bZ a26
#34276312750
b0 a25
#34276312860
bZ a27
#34276312890
b0 a28
#34276312970
bZ a23
#34276313040
bZ a29
#34276313050
b0 a1
#34276313060
b0 a30
#34276313190
bZ a30
#34276313210
b0 a31
#34276313400
bZ a1
#34276313640
bZ a32
#34276313660
b0 a33
#34276313670
b0 a2
#34276313740
bZ a34
#34276313760
b0 a4
#34276313860
b0 a6
#34276328150
b0 a35
#34276365410
bZ a19
#34276365620
bZ a33
#34276365750
b0 a36
#34276365780
bZ a21
#34276366040
b0 a9
#34276366060
b0 a8
#34276366100
bZ a22
#34276366170
b0 a11
#34276366200
bZ a37
#34276366280
bZ a38
#34276366300
b0 a12
#34276366350
b0 a16
#34276366380
bZ a39
#34276366450
bZ a31
#34276366470
b0 a18
#34276366540
bZ a2
#34276366560
b0 a20
#34276366610
bZ a3
#34276366630
b0 a40
#34276366750
bZ a5
#34276366780
b0 a41
#34276366970
bZ a7
#34276367010
b0 a42
#34276367040
bZ a10
#34276367070
b0 a15
#34276367110
bZ a43
#34276367150
b0 a29
#34276367180
bZ a35
#34276367190
b0 a43
#34276367200
b0 a1
#34276367250
bZ a36
#34276367320
bZ a11
#34276367330
b0 a32
#34276367390
bZ a12
#34276367410
b0 a34
#34276367670
bZ a13
#34276367690
b0 a26
#34276368590
bZ a40
#34276368640
b0 a44
#34276368760
bZ a44
#34276368790
b0 a27
#34276368890
bZ a15
#34276368920
bZ a17
#34276369070
bZ a41
#34276369260
b0 a14
#34276369270
b0 a45
#34276369290
b0 a19
#34276369530
bZ a19
#34276369530
b0 a33
#34276370020
bZ a46
#34276370040
b0 a22
#34276370100
b0 a46
#34276370130
bZ a22
#34276370200
bZ a25
#34276370220
b0 a37
#34276370340
bZ a28
#34276370340
b0 a38
#34276370430
bZ a45
#34276370460
bZ a42
#34276370490
b0 a30
#34276370610
b- a23
#34276370620
b- a24
#34276370640
bX a23
#34276370650
b0 a39
#34276370700
bZ a30
#34276370910
bZ a33
#34276371220
bZ a1
#34276371550
bZ a4
#34276371620
bZ a6
#34276371630
b0 a3
#34276371660
b0 a5
#34276371670
b0 a7
#34276371750
bZ a8
#34276371770
bZ a9
#34276371800
b0 a10
#34276371820
b0 a11
#34276371860
bZ a11
#34276371890
b0 a12
#34276371940
bZ a12
#34276371950
b0 a13
#34276372200
bZ a14
#34276372250
b0 a15
#34276372450
bZ a16
#34276372530
b0 a17
#34276372570
bZ a18
#34276372590
b0 a19
#34276372640
bZ a20
#34276372650
b0 a21
#34276372720
b0 a22
#34276372770
bZ a15
#34276373100
bZ a26
#34276373110
b0 a25
#34276373160
bZ a27
#34276373170
b0 a28
#34276373270
bZ a29
#34276373290
b0 a1
#34276373410
b0 a30
#34276373750
b- a23
#34276373810
bX a24
#34276373900
bZ a30
#34276374220
bZ a1
#34276374410
bZ a23
#34276374570
bZ a32
#34276374590
b0 a31
#34276374650
bZ a34
#34276374660
b0 a2
#34276374740
b0 a33
#34276380660
b0 a4
#34276387670
b0 a35
#34276387680
b0 a6
#34276391640
b- a47
#34276391640
b- a24
#34276391670
bZ a48
#34276391710
bX a47
#34276392700
b- a49
#34276392700
b- a47
#34276392720
bX a49
#34276393320
bZ a47
#34276402260
bZ a50
#34276443710
b0 a51
#34276443710
bZ a52
#34276444740
bZ a51
#34276445240
b- a53
#34276445270
b- a49
#34276445300
bZ a54
#34276445330
bX a53
#34276445440
bZ a55
#34276445850
b- a53
#34276445870
bX a49
#34276445890
bZ a53
#34276445920
b0 a36
#34276446220
bZ a56
#34276449890
bZ a57
#34276451240
b0 a58
#34276451240
bZ a59
#34276451680
bZ a60
#34276452260
bZ a58
#34276504330
b0 a61
#34276504330
bZ a62
#34276505380
bZ a61
#34276589060
b- a63
#34276589060
b- a49
#34276589120
bX a63
#34276591190
bZ a49
#34276598700
b- a63
#34276598730
bX a24
#34276600170
b- a24
#34276600180
bX a64
#34276601230
bZ a66
#34276601250
bZ a68
#34276601250
bZ a69
#34276601250
bZ a70
#34276601280
bZ a73
#34276601280
bZ a74
#34276601290
bZ a76
#34276601320
bZ a63
#34276601350
bZ a79
#34276601350
bZ a80
#34276601380
b0 a40
#34276601390
b0 a65
#34276601400
bZ a81
#34276601400
bZ a82
#34276601410
bZ a83
#34276601430
b- a64
#34276601440
b0 a72
#34276601460
b0 a51
#34276601460
bZ a52
#34276601510
b0 a75
#34276601530
b0 a41
#34276601550
b0 a42
#34276601570
bX a24
#34276601580
b0 a71
#34276601600
b0 a67
#34276601610
b0 a30
#34276601620
b0 a78
#34276601620
bZ a84
#34276601630
b0 a77
#34276601670
bZ a85
#34276601890
b0 a86
#34276602190
bZ a75
#34276602470
bZ a51
#34276602740
bZ a77
#34276603170
bZ a67
#34276603190
b0 a8
#34276603420
bZ a30
#34276604110
bZ a4
#34276604250
bZ a8
#34276604290
b0 a9
#34276605920
b- a47
#34276605920
b- a24
#34276605950
bZ a48
#34276606000
bX a47
#34276606210
bZ a78
#34276607810
b- a63
#34276607820
b- a47
#34276607830
bX a63
#34276609530
bZ a47
#34276616770
bZ a50
#34276643160
bZ a79
#34276643160
bZ a80
#34276643200
bX a24
#34276644890
bZ a19
#34276645230
bZ a33
#34276645770
bZ a21
#34276646150
b0 a11
#34276646170
b0 a12
#34276646210
bZ a65
#34276646610
bZ a22
#34276646710
b0 a16
#34276646750
bZ a37
#34276646850
bZ a38
#34276646870
b0 a18
#34276646930
b0 a20
#34276646950
bZ a39
#34276647020
bZ a31
#34276647050
b0 a15
#34276647100
bZ a2
#34276647140
b0 a29
#34276647180
bZ a3
#34276647230
b0 a44
#34276647380
bZ a5
#34276647410
b0 a14
#34276647640
bZ a7
#34276647660
b0 a85
#34276647710
bZ a10
#34276647730
b0 a1
#34276647780
bZ a43
#34276647800
b0 a4
#34276647860
bZ a35
#34276647860
b0 a43
#34276647880
b0 a27
#34276647920
bZ a36
#34276648020
bZ a11
#34276648030
b0 a8
#34276648090
bZ a12
#34276648100
b0 a32
#34276648520
bZ a13
#34276648560
b0 a34
#34276649610
bZ a40
#34276649680
b0 a26
#34276649920
bZ a44
#34276649960
b0 a54
#34276649960
bZ a87
#34276649970
bZ a54
#34276650230
bZ a15
#34276650270
bZ a17
#34276650530
bZ a41
#34276650700
b0 a45
#34276650740
b0 a19
#34276650760
b0 a33
#34276650940
b0 a21
#34276651290
bZ a50
#34276651560
bZ a48
#34276651950
b0 a22
#34276652080
bZ a19
#34276652290
bZ a21
#34276652510
bZ a46
#34276652530
b0 a37
#34276652540
b0 a75
#34276652590
b0 a46
#34276652620
bZ a22
#34276652680
bZ a25
#34276652690
b0 a38
#34276652790
bZ a28
#34276652800
b0 a30
#34276652890
bZ a75
#34276652910
bZ a45
#34276652920
b0 a39
#34276653420
bZ a42
#34276653470
b0 a31
#34276653560
b- a23
#34276653560
b- a24
#34276653580
bX a23
#34276653630
bZ a30
#34276653920
bZ a33
#34276654140
b0 a2
#34276654190
bZ a1
#34276654630
bZ a31
#34276654660
bZ a4
#34276654670
b0 a5
#34276654690
b0 a3
#34276654720
b0 a7
#34276654740
bZ a2
#34276654780
b0 a10
#34276654840
bZ a6
#34276654860
b0 a35
#34276654900
bZ a8
#34276654930
bZ a35
#34276654950
b0 a36
#34276654960
b0 a11
#34276655020
bZ a36
#34276655040
b0 a12
#34276655100
bZ a9
#34276655110
b0 a13
#34276655190
bZ a11
#34276655200
b0 a40
#34276655250
bZ a12
#34276655270
b0 a15
#34276655540
bZ a40
#34276655570
b0 a17
#34276655700
bZ a14
#34276655730
b0 a44
#34276655940
b- a23
#34276655980
bX a24
#34276656150
bZ a44
#34276656300
b0 a41
#34276656380
bZ a15
#34276656400
bZ a17
#34276656570
bZ a23
#34276656590
bZ a41
#34276656620
b0 a19
#34276656710
b0 a48
#34276656740
b0 a22
#34276656740
b0 a21
#34276657030
b0 a25
#34276657190
bZ a16
#34276657320
bZ a18
#34276657340
b0 a28
#34276657400
bZ a20
#34276657430
b0 a1
#34276657530
b0 a88
#34276657530
bZ a89
#34276657530
bZ a90
#34276657740
bZ a26
#34276657800
bZ a27
#34276657820
b0 a30
#34276657870
bZ a88
#34276657940
b0 a31
#34276657970
bZ a30
#34276658190
bZ a1
#34276658470
bZ a32
#34276658490
b0 a4
#34276658520
bZ a4
#34276658520
b0 a33
#34276658570
b0 a2
#34276658610
bZ a34
#34276658640
b0 a6
#34276658740
b0 a8
#34276658810
bZ a29
#34276658990
b0 a35
#34276663120
b0 a36
#34276705290
b- a47
#34276705300
b- a24
#34276705320
bZ a48
#34276705360
bX a47
#34276706840
b- a63
#34276706840
b- a47
#34276706860
bX a63
#34276708760
bZ a47
#34276714140
b- a63
#34276714170
bX a24
#34276716150
b- a24
#34276716160
bX a64
#34276717430
bZ a63
#34276717450
bZ a79
#34276717490
b- a64
#34276717530
b0 a42
#34276717550
bX a24
#34276717570
bZ a85
#34276720350
bZ a33
#34276720540
b0 a9
#34276720730
bZ a91
#34276720900
bZ a92
#34276721070
bZ a93
#34276721100
b0 a11
#34276721150
b0 a12
#34276721180
bZ a94
#34276721200
b0 a17
#34276721340
b0 a16
#34276723710
bZ a21
#34276724190
b0 a18
#34276724680
b0 a41
#34276725640
bZ a19
#34276727470
b- a47
#34276727470
b- a24
#34276727520
bZ a48
#34276727620
bX a47
#34276729310
b- a63
#34276729310
b- a47
#34276729320
bX a63
#34276732140
bZ a47
#34276738220
bZ a50
#34276740050
bZ a95
#34276740410
bZ a96
#34276740440
b0 a20
#34276740530
bZ a97
#34276740550
b0 a40
#34276740790
bZ a98
#34276741000
bZ a99
#34276741060
bZ a100
#34276741170
bZ a101
#34276741200
bZ a46
#34276741330
b0 a1
#34276741370
bZ a102
#34276741590
b0 a27
#34276741600
b0 a45
#34276741610
b0 a14
#34276741610
b0 a29
#34276741620
b0 a44
#34276741620
bZ a103
#34276741630
b0 a15
#34276744670
bZ a86
#34276746200
b0 a32
#34276748020
bZ a104
#34276748290
b0 a34
#34276751110
bZ a27
#34276751320
b0 a91
#34276751970
bZ a37
#34276752220
b0 a92
#34276753320
bZ a1
#34276753800
bZ a105
#34276753830
b0 a93
#34276753950
bZ a106
#34276753990
b0 a94
#34276754430
bZ a107
#34276754530
b0 a30
#34276754600
b0 a75
#34276756970
bZ a13
#34276757930
b0 a85
#34276760870
bZ a14
#34276761370
b0 a19
#34276973000
b0 a108
#34276973000
bZ a109
#34276974040
bZ a108
#34277179220
bZ a110
#34277179640
b0 a21
#34277217880
b- a111
#34277217880
b- a63
#34277217900
bX a111
#34277223970
b- a111
#34277223990
bX a63
#34277224250
bZ a111
#34277224360
b- a112
#34277224360
b- a63
#34277224370
bX a112
#34277226010
b- a113
#34277226010
b- a112
#34277226030
bX a113
#34277234250
bZ a114
#34277234520
bZ a115
#34277235030
b0 a33
#34277237600
b0 a26
#34277239850
b- a113
#34277239850
bX a112
#34277240030
bZ a113
#34277267970
b- a112
#34277267990
bX a63
#34277268440
bZ a112
#34277269680
b- a116
#34277269680
b- a63
#34277269690
bX a116
#34277273940
b0 a96
#34277273950
b0 a95
#34277282370
b- a116
#34277282400
bX a63
#34277283180
bZ a116
#34277283290
b- a117
#34277283300
b- a63
#34277283320
bX a117
#34277287780
bZ a118
#34277289480
bZ a119
#34277289650
bZ a85
#34277289680
bZ a120
#34277290270
bZ a121
#34277291800
bZ a122
#34277291840
b0 a97
#34277291920
bZ a123
#34277291950
b0 a99
#34277292040
bZ a124
#34277292070
b0 a100
#34277292240
bZ a125
#34277292350
b0 a101
#34277292360
b0 a46
#34277292360
bZ a126
#34277293420
bZ a46
#34277293620
b0 a98
#34277293680
b0 a46
#34277297710
b- a117
#34277297730
bX a63
#34277298280
b- a112
#34277298280
b- a63
#34277298300
bX a112
#34277298320
bZ a117
#34277299380
bZ a33
#34277307030
b- a113
#34277307040
b- a112
#34277307060
bX a113
#34277318080
bZ a75
#34277319650
b0 a86
#34277363250
b- a113
#34277363290
bX a112
#34277363550
bZ a113
#34277368520
b- a113
#34277368530
b- a112
#34277368560
bX a113
#34277369780
b- a113
#34277369800
bX a112
#34277369970
bZ a113
#34277377800
b- a127
#34277377800
b- a112
#34277377830
bX a127
#34277394210
b- a127
#34277394220
bX a112
#34277394390
bZ a127
#34277419920
b- a112
#34277419960
bX a63
#34277420390
bZ a112
#34277420660
b- a112
#34277420660
b- a63
#34277420690
bX a112
#34277421020
b- a112
#34277421020
b- a112
#34277421180
bX a112
#34277443590
b- a112
#34277443670
bX a112
#34277443790
bZ a112
#34277464840
b- a113
#34277464840
b- a112
#34277464860
bX a113
#34277484050
bZ a79
#34277484050
bZ a128
#34277484050
bZ a80
#34277484130
bZ a48
#34277484160
bX a24
#34277484170
bZ a63
#34277484180
bZ a112
#34277484280
b0 a104
#34277484460
bZ a30
#34277485280
bZ a32
#34277485310
b0 a102
#34277485400
bZ a8
#34277485410
bZ a34
#34277485450
b0 a37
#34277485610
b0 a105
#34277485650
bZ a26
#34277485740
b0 a106
#34277485750
b0 a4
#34277495350
bZ a50
