Android_Monkey_Analysis/analysis_bugreport/LeEco_LE67A06310133286_bugreport_out/raw/am_logs.vcd
$timescale 1ms $end
$scope am_logs $end
$var wire 1 a23 com.tianyancha.skyeye/.MainActivity $end
$var wire 1 a60 com.letv.android.usagestats $end
$var wire 1 a9 com.android.exchange $end
$var wire 1 a37 com.tianyancha.skyeye/.SplashPage $end
$var wire 1 a28 com.tianyancha.skyeye/com.taobao.accs.ChannelService $end
$var wire 1 a77 com.tencent.mm/.plugin.wallet_core.ui.WalletOrderInfoUI $end
$var wire 1 a10 com.tianyancha.skyeye/.invite.InviteAwardActivity $end
$var wire 1 a57 com.android.defcontainer $end
$var wire 1 a29 com.tianyancha.skyeye $end
$var wire 1 a27 com.tianyancha.skyeye:channel $end
$var wire 1 a84 com.tianyancha.skyeye/.activity.NearCompanyActivity $end
$var wire 1 a48 com.letv.android.ecoProvider $end
$var wire 1 a39 com.android.systemui/.recents.leui.LeuiRecentActivity $end
$var wire 1 a45 com.android.settings/.SubSettings $end
$var wire 1 a31 com.tianyancha.skyeye/org.android.agoo.accs.AgooService $end
$var wire 1 a46 com.letv.bugpostbox $end
$var wire 1 a2 com.tencent.mm/.plugin.base.stub.WXEntryActivity $end
$var wire 1 a20 com.mediatek.engineermode $end
$var wire 1 a49 com.letv.android.note $end
$var wire 1 a73 com.tencent.mm/.plugin.wallet_core.id_verify.WalletRealNameVerifyUI $end
$var wire 1 a69 com.tencent.mm/.plugin.wallet.pay.ui.WalletPayUI $end
$var wire 1 a12 com.android.providers.calendar $end
$var wire 1 a25 com.tianyancha.skyeye/.activity.BecomeVIPActivity $end
$var wire 1 a42 com.letv.android.letvsafe $end
$var wire 1 a59 com.tianyancha.skyeye/.LoginActivity $end
$var wire 1 a50 com.android.externalstorage $end
$var wire 1 a36 com.letv.domain $end
$var wire 1 a74 com.tencent.mm/.plugin.wallet_core.ui.WalletSetPasswordUI $end
$var wire 1 a32 com.softsim.control $end
$var wire 1 a58 android.process.acore $end
$var wire 1 a44 com.letv.android.themesettings $end
$var wire 1 a89 com.tianyancha.skyeye/.detail.datadimension.risk.company.CompanyRiskEvaluatingActivity $end
$var wire 1 a21 com.android.keychain $end
$var wire 1 a43 com.letv.leui.schpwronoff $end
$var wire 1 a88 com.tianyancha.skyeye/.detail.human.PersonDetailActivity $end
$var wire 1 a13 com.icoolme.android.weather $end
$var wire 1 a3 com.tencent.mm:support $end
$var wire 1 a8 com.tianyancha.skyeye/.SharePage $end
$var wire 1 a16 com.sohu.inputmethod.status $end
$var wire 1 a22 com.android.documentsui $end
$var wire 1 a11 com.letv.android.mobileactivation $end
$var wire 1 a63 com.tianyancha.skyeye/.invite.AccountHistoryActivity $end
$var wire 1 a71 com.tencent.mm/.plugin.luckymoney.ui.En_fba4b94f $end
$var wire 1 a51 com.mediatek.providers.drm $end
$var wire 1 a14 com.android.inputmethod.latin $end
$var wire 1 a35 com.svox.pico $end
$var wire 1 a92 com.tianyancha.skyeye/.detail.datadimension.outinvest.OutInvestActivity $end
$var wire 1 a52 com.android.email $end
$var wire 1 a61 com.tianyancha.skyeye/.invite.TakeMoneyActivity $end
$var wire 1 a5 com.tencent.mm/.ui.transmit.SelectConversationUI $end
$var wire 1 a82 com.tianyancha.skyeye/.activity.InvoiceDetailActivity $end
$var wire 1 a24 com.letv.android.backup $end
$var wire 1 a62 com.tencent.mm/.plugin.webview.ui.tools.SDKOAuthUI $end
$var wire 1 a93 com.tianyancha.skyeye/.invite.TakeMoneyDetailActivity $end
$var wire 1 a41 com.android.cellbroadcastreceiver $end
$var wire 1 a75 com.tencent.mm/.plugin.wallet_core.ui.WalletPwdConfirmUI $end
$var wire 1 a67 com.tencent.mm/.plugin.base.stub.WXPayEntryActivity $end
$var wire 1 a86 com.tianyancha.skyeye/.detail.company.FirmDetailActivity $end
$var wire 1 a72 com.tencent.mm/.plugin.wallet_core.id_verify.SwitchRealnameVerifyModeUI $end
$var wire 1 a83 com.android.launcher3:upgrade $end
$var wire 1 a30 com.tianyancha.skyeye/com.taobao.accs.data.MsgDistributeService $end
$var wire 1 a53 com.letv.android.filemanager $end
$var wire 1 a34 com.letv.walletbiz $end
$var wire 1 a54 com.mediatek.esntrack $end
$var wire 1 a79 com.tianyancha.skyeye/.activity.order.PaySucActivity $end
$var wire 1 a4 com.tencent.mm/.plugin.base.stub.UIEntryStub $end
$var wire 1 a26 com.android.launcher3/.Launcher $end
$var wire 1 a90 com.tianyancha.skyeye/.detail.datadimension.risk.risk_lawsuit.RiskLawsuitListActivity $end
$var wire 1 a78 com.tencent.mm/.plugin.wallet_core.ui.WalletOrderInfoNewUI $end
$var wire 1 a6 com.tencent.mm/.ui.transmit.SendAppMessageWrapperUI $end
$var wire 1 a85 com.tianyancha.skyeye:remote $end
$var wire 1 a80 com.tianyancha.skyeye/.activity.order.MyOrderActivity $end
$var wire 1 a1 com.tencent.mm/.app.WeChatSplashActivity $end
$var wire 1 a87 com.tianyancha.skyeye/.FeedBackPage $end
$var wire 1 a81 com.tianyancha.skyeye/.activity.InvoiceApplyActivity $end
$var wire 1 a15 com.sohu.inputmethod.sogou.leshi $end
$var wire 1 a17 com.letv.android.wallpaperonline $end
$var wire 1 a47 com.letv.wallet $end
$var wire 1 a68 com.tencent.mm/.plugin.wallet_index.ui.OrderHandlerUI $end
$var wire 1 a91 com.tianyancha.skyeye/.detail.datadimension.lawsuit.LawsuitDetailActivity $end
$var wire 1 a7 com.tianyancha.skyeye/.wxapi.WXEntryActivity $end
$var wire 1 a55 com.letv.android.cloudservice $end
$var wire 1 a70 com.tianyancha.skyeye/.wxapi.WXPayEntryActivity $end
$var wire 1 a33 com.android.shell $end
$var wire 1 a38 com.tianyancha.skyeye/.activity.LaunchActivity $end
$var wire 1 a40 com.android.settings/.Settings $end
$var wire 1 a66 com.tencent.mm:tools $end
$var wire 1 a18 com.mediatek.mtklogger $end
$var wire 1 a76 com.tencent.mm/.plugin.luckymoney.ui.LuckyMoneyDetailUI $end
$var wire 1 a56 com.android.calendar $end
$var wire 1 a19 com.android.settings $end
$var wire 1 a65 com.tencent.mm/.ui.LauncherUI $end
$var wire 1 a64 com.tencent.mm/.ui.transmit.TaskRedirectUI $end
$upscope $end
$enddefinitions $end
#34274334573
b- a23
bZ a60
bZ a9
bZ a37
b- a28
bZ a77
b- a10
bZ a57
b0 a29
b0 a27
bZ a84
b0 a48
bZ a39
bZ a45
b- a31
b0 a46
b- a2
b0 a20
b0 a49
bZ a73
bZ a69
bZ a12
bZ a25
b0 a42
bZ a59
bZ a50
bZ a36
bZ a74
b0 a32
bZ a58
b0 a44
bZ a89
bZ a21
b0 a43
bZ a88
bZ a13
b0 a3
b- a8
b0 a16
bZ a22
b0 a11
bZ a63
bZ a71
b0 a51
b0 a14
bZ a35
bZ a92
b0 a52
bZ a61
bZ a5
bZ a82
b0 a24
bZ a62
bZ a93
b0 a41
bZ a75
bZ a67
bZ a86
bZ a72
b0 a83
b- a30
bZ a53
bZ a34
b0 a54
bZ a79
bZ a4
b- a26
bZ a90
bZ a78
bZ a6
b0 a85
bZ a80
bX a1
bZ a87
bZ a81
b0 a15
bZ a17
b0 a47
bZ a68
bZ a91
bZ a7
b0 a55
bZ a70
bZ a33
bZ a38
bZ a40
b0 a66
b0 a18
bZ a76
bZ a56
bZ a19
bZ a65
bZ a64
#34274334574
b- a1
#34274334922
bX a2
#34274335719
bZ a1
#34274335845
bZ a3
#34274346322
b- a4
#34274346323
b- a2
#34274346603
bX a4
#34274346771
b- a5
#34274346801
b- a4
#34274346838
bX a5
#34274347265
bZ a4
#34274347546
bZ a2
#34274353824
b- a6
#34274353824
b- a5
#34274353840
bX a6
#34274357999
b- a6
#34274358032
b- a7
#34274358336
bX a7
#34274358402
b- a7
#34274358412
bX a5
#34274358467
b- a5
#34274358483
bX a8
#34274358776
bZ a7
#34274359076
bZ a5
#34274359076
bZ a6
#34274359117
b0 a9
#34274367442
b- a8
#34274367455
bX a10
#34274367480
bZ a8
#34274424314
bZ a11
#34274424457
b0 a12
#34274427574
b0 a13
#34274473489
bZ a14
#34274473504
bZ a15
#34274473887
bZ a16
#34274474026
b0 a17
#34274474381
bZ a18
#34274474535
b0 a19
#34274474579
bZ a20
#34274474615
b0 a21
#34274474725
b0 a22
#34274484511
b0 a18
#34274625311
b- a10
#34274625339
bX a23
#34274625519
bZ a10
#34274626340
b- a10
#34274626341
b- a23
#34274626357
bX a10
#34274709530
b- a10
#34274709553
bX a23
#34274709745
bZ a10
#34274711217
b- a10
#34274711219
b- a23
#34274711234
bX a10
#34274715558
bZ a24
#34274722803
b- a10
#34274722815
bX a23
#34274722927
bZ a10
#34274724016
b- a10
#34274724017
b- a23
#34274724034
bX a10
#34274790616
b- a10
#34274790642
bX a23
#34274790812
bZ a10
#34274793577
b- a25
#34274793578
b- a23
#34274793596
bX a25
#34274800390
b- a25
#34274800421
bX a23
#34274800580
bZ a25
#34274858665
b- a25
#34274858666
b- a23
#34274858684
bX a25
#34274860918
b- a25
#34274860937
bX a23
#34274861162
bZ a25
#34274862422
b- a10
#34274862423
b- a23
#34274862459
bX a10
#34274892027
b- a10
#34274892043
bX a23
#34274892222
bZ a10
#34274898994
b- a23
#34274899001
bX a26
#34274903910
bZ a28
#34274904129
bZ a30
#34274904130
bZ a31
#34274904234
bZ a23
#34274904617
bZ a32
#34274904938
bZ a19
#34274905073
bZ a21
#34274905276
bZ a22
#34274905391
b0 a33
#34274905413
bZ a33
#34274905452
b0 a34
#34274908205
b0 a35
#34274930532
bZ a34
#34274930738
bZ a35
#34274933731
b0 a36
#34274940817
b0 a20
#34274944093
b- a37
#34274944112
b- a26
#34274944181
bZ a29
#34274944213
bX a37
#34274944953
b- a38
#34274944957
b- a37
#34274944962
bX a38
#34274945334
bZ a37
#34274954580
bZ a27
#34274967248
b- a23
#34274967249
b- a38
#34274967263
bX a23
#34274968253
bZ a38
#34274971737
b- a23
#34274971748
bX a26
#34274972871
b- a39
#34274972872
b- a26
#34274972966
bX a39
#34274977170
b- a39
#34274977282
bX a26
#34274994443
b- a40
#34274994445
b- a26
#34274994515
bX a40
#34274994699
bZ a41
#34274994890
bZ a42
#34274995000
bZ a43
#34274995097
bZ a44
#34274995311
b0 a15
#34274995354
b0 a24
#34274995393
b0 a11
#34275007154
b- a45
#34275007156
b- a40
#34275007175
bX a45
#34275009764
b- a45
#34275009765
b- a45
#34275009781
bX a45
#34275010936
b- a45
#34275010956
bX a45
#34275011205
bZ a46
#34275011396
bZ a47
#34275011600
bZ a45
#34275011624
b0 a14
#34275011654
bZ a48
#34275011812
bZ a36
#34275011870
bZ a49
#34275011906
b0 a21
#34275012073
b0 a50
#34275012075
b0 a22
#34275012163
b0 a33
#34275012217
bZ a51
#34275012331
bZ a52
#34275012371
b0 a53
#34275012611
bZ a54
#34275012689
b0 a35
#34275012711
bZ a9
#34275012738
bZ a55
#34275012783
b0 a56
#34275013001
bZ a53
#34275013041
b0 a57
#34275013281
b0 a58
#34275013321
b0 a41
#34275013429
bZ a15
#34275013626
bZ a13
#34275013671
b0 a42
#34275013870
b0 a43
#34275013888
bZ a11
#34275014076
b0 a44
#34275014107
bZ a56
#34275014317
bZ a12
#34275014623
b0 a47
#34275014629
b0 a46
#34275014773
bZ a46
#34275014975
bZ a47
#34275015112
b0 a48
#34275015134
bZ a48
#34275015342
b0 a36
#34275015458
bZ a36
#34275015829
b- a45
#34275015922
b0 a9
#34275015947
b0 a12
#34275017607
b- a39
#34275017623
bX a23
#34275020895
b- a10
#34275020896
b- a23
#34275020913
bX a10
#34275031649
b- a10
#34275031665
bX a23
#34275033188
b- a59
#34275033191
b- a23
#34275033205
bX a59
#34275037796
bZ a10
#34275042940
b- a59
#34275043003
bX a23
#34275043333
bZ a59
#34275044594
b- a8
#34275044594
b- a23
#34275044604
bX a8
#34275045828
b- a8
#34275045847
bX a23
#34275045982
bZ a8
#34275046576
b- a10
#34275046576
b- a23
#34275046585
bX a10
#34275106725
b0 a60
#34275154983
b- a61
#34275154984
b- a10
#34275155005
bZ a60
#34275155008
bX a61
#34275156310
b- a2
#34275156342
b- a61
#34275156355
bX a2
#34275156393
b- a4
#34275156393
b- a2
#34275156404
bX a4
#34275156457
b- a62
#34275156458
b- a4
#34275156466
bX a62
#34275156680
bZ a2
#34275156680
bZ a4
#34275158158
b- a7
#34275158206
b- a62
#34275158231
bX a7
#34275158321
b- a7
#34275158350
bX a61
#34275158384
bZ a7
#34275158666
bZ a62
#34275164169
b- a61
#34275164185
bX a10
#34275164316
bZ a61
#34275166295
b- a63
#34275166296
b- a10
#34275166311
bX a63
#34275170045
b- a63
#34275170058
bX a10
#34275170206
bZ a63
#34275174868
b- a8
#34275174870
b- a10
#34275174884
bX a8
#34275176585
b- a2
#34275176616
b- a8
#34275176630
bX a2
#34275176863
b- a4
#34275176903
b- a2
#34275177141
bX a4
#34275177172
b- a5
#34275177175
b- a4
#34275177188
bX a5
#34275177512
bZ a2
#34275177513
bZ a4
#34275179081
b- a6
#34275179082
b- a5
#34275179099
bX a6
#34275182796
b- a6
#34275182837
bX a5
#34275182899
b- a5
#34275182902
b- a64
#34275182911
bX a64
#34275183003
b- a65
#34275183004
b- a64
#34275183068
bX a65
#34275183965
bZ a18
#34275183967
bZ a5
#34275183967
bZ a6
#34275183967
bZ a64
#34275184253
bZ a20
#34275184316
b0 a46
#34275184456
bZ a14
#34275184559
b0 a47
#34275187712
bZ a66
#34275193893
b- a65
#34275193992
bX a26
#34275194235
b0 a18
#34275203255
b- a26
#34275203282
bX a8
#34275204664
b- a8
#34275204671
bX a10
#34275204701
bZ a8
#34275205105
b- a10
#34275205112
bX a23
#34275205322
bZ a10
#34275206280
b- a25
#34275206280
b- a23
#34275206300
bX a25
#34275223843
b- a67
#34275223870
b- a25
#34275223884
bX a67
#34275223956
b- a68
#34275223989
b- a67
#34275224112
bX a68
#34275224219
bZ a67
#34275224308
b- a69
#34275224308
b- a68
#34275224322
bX a69
#34275256623
b- a69
#34275256629
b- a70
#34275256654
bZ a68
#34275256663
bX a70
#34275256692
b- a70
#34275256709
bX a25
#34275256777
bZ a70
#34275257403
b- a25
#34275257409
bX a23
#34275257688
bZ a25
#34275257688
bZ a69
#34275259208
b- a23
#34275259301
bX a26
#34275260890
b- a26
#34275261019
bX a65
#34275264670
b- a71
#34275264671
b- a65
#34275264714
bX a71
#34275268255
b- a72
#34275268256
b- a71
#34275268276
bX a72
#34275273355
b- a73
#34275273359
b- a72
#34275273374
bX a73
#34275286520
b- a74
#34275286521
b- a73
#34275286542
bX a74
#34275292691
b- a75
#34275292692
b- a74
#34275292712
bX a75
#34275304924
bZ a72
#34275305125
bZ a73
#34275305158
bZ a74
#34275305182
b- a75
#34275305290
bX a71
#34275305792
bZ a75
#34275309174
b- a76
#34275309174
b- a71
#34275309199
bX a76
#34275309616
bZ a71
#34275311662
b- a76
#34275311685
bX a65
#34275312191
bZ a76
#34275315767
b- a65
#34275315772
bX a39
#34275316881
b- a39
#34275316903
bX a23
#34275319319
b- a25
#34275319320
b- a23
#34275319338
bX a25
#34275322122
b- a67
#34275322158
b- a25
#34275322430
bX a67
#34275322514
b- a68
#34275322546
b- a67
#34275322766
bX a68
#34275322924
bZ a67
#34275322987
b- a69
#34275322987
b- a68
#34275322998
bX a69
#34275331227
b- a77
#34275331228
b- a69
#34275331245
bX a77
#34275331275
b- a78
#34275331332
b- a77
#34275331505
bX a78
#34275331626
bZ a77
#34275332771
b- a78
#34275332777
b- a70
#34275332803
bZ a68
#34275332828
bX a69
#34275332917
b- a69
#34275332921
bZ a70
#34275332936
bX a25
#34275333066
bZ a69
#34275333066
bZ a78
#34275333302
b- a79
#34275333351
b- a25
#34275333503
bX a79
#34275333858
bZ a25
#34275412489
b- a80
#34275412490
b- a79
#34275412508
bX a80
#34275413048
bZ a79
#34275418080
b- a81
#34275418081
b- a80
#34275418100
bX a81
#34275423511
b- a82
#34275423512
b- a81
#34275423537
bX a82
#34275444799
b- a82
#34275444820
bX a81
#34275445043
bZ a82
#34275445864
b- a81
#34275445879
bX a80
#34275445975
bZ a81
#34275446874
b- a80
#34275446888
bX a23
#34275447195
bZ a80
#34275781358
bZ a18
#34275781520
b0 a48
#34275781590
b0 a49
#34275791512
b0 a18
#34276497425
bZ a57
#34276510999
bZ a28
#34276511137
bZ a31
#34276511137
bZ a30
#34276511160
bX a26
#34276511636
bZ a32
#34276511867
bZ a58
#34276512356
bZ a21
#34276512805
bZ a35
#34276512932
bZ a9
#34276513233
bZ a83
#34276513487
b0 a51
#34276515827
b0 a52
#34276522084
b0 a54
#34276553394
b- a37
#34276553394
b- a26
#34276553440
bZ a29
#34276553485
bX a37
#34276554684
b- a23
#34276554685
b- a37
#34276554699
bX a23
#34276556341
bZ a37
#34276563871
bZ a27
#34276614815
b0 a55
#34276767033
b- a84
#34276767033
b- a23
#34276767048
bX a84
#34276767264
bZ a85
#34276769205
b- a86
#34276769206
b- a84
#34276769219
bX a86
#34276770939
bZ a84
#34276770945
b- a86
#34276770981
bX a23
#34276771236
b- a87
#34276771237
b- a23
#34276771252
bX a87
#34276771255
bZ a86
#34276773241
b- a87
#34276773255
bX a23
#34276773581
bZ a87
#34276774546
b- a87
#34276774573
b- a23
#34276774598
bX a87
#34276784905
b- a87
#34276784938
bX a23
#34276785285
bZ a87
#34276785350
b- a87
#34276785351
b- a23
#34276785367
bX a87
#34276795804
b- a87
#34276795817
bX a23
#34276795997
bZ a87
#34276797373
b- a84
#34276797374
b- a23
#34276797385
bX a84
#34276798052
b- a86
#34276798052
b- a84
#34276798066
bX a86
#34276799574
b- a88
#34276799577
b- a86
#34276799589
bX a88
#34276800164
b- a8
#34276800165
b- a88
#34276800183
bX a8
#34276800526
b- a8
#34276800541
bX a88
#34276800681
b- a86
#34276800682
b- a88
#34276800688
bX a86
#34276800691
bZ a8
#34276802036
b- a89
#34276802037
b- a86
#34276802051
bX a89
#34276802950
b- a90
#34276802951
b- a89
#34276802968
bX a90
#34276803566
b- a91
#34276803570
b- a90
#34276803583
bX a91
#34276808131
b- a86
#34276808131
b- a91
#34276808153
bX a86
#34276809965
b- a92
#34276809965
b- a86
#34276809983
bX a92
#34276810726
b- a86
#34276810727
b- a92
#34276810745
bX a86
#34276811730
b- a86
#34276811731
b- a86
#34276811746
bX a86
#34276812873
b- a89
#34276812874
b- a86
#34276812889
bX a89
#34276813448
b- a90
#34276813449
b- a89
#34276813479
bX a90
#34276814197
b- a91
#34276814198
b- a90
#34276814211
bX a91
#34276814513
bZ a84
#34276814648
bZ a86
#34276814648
bZ a88
#34276814649
bZ a86
#34276814649
bZ a89
#34276814649
bZ a90
#34276814650
bZ a91
#34276814650
bZ a86
#34276814651
bZ a92
#34276814652
bZ a86
#34276814653
bZ a86
#34276814653
bZ a89
#34276814654
bZ a90
#34276814659
b- a91
#34276814902
bX a23
#34276815652
bZ a91
#34276815703
b0 a15
#34276815833
b- a10
#34276815834
b- a23
#34276815954
bX a10
#34276815979
b0 a36
#34276821099
b- a63
#34276821100
b- a10
#34276821120
bX a63
#34276834221
b- a63
#34276834238
bX a10
#34276834386
bZ a63
#34276834861
b- a8
#34276834862
b- a10
#34276834876
bX a8
#34276835158
b- a8
#34276835166
bX a10
#34276835198
bZ a8
#34276835209
b- a8
#34276835209
b- a10
#34276835218
bX a8
#34276835491
b- a8
#34276835509
bX a10
#34276835555
bZ a8
#34276835618
b- a8
#34276835619
b- a10
#34276835633
bX a8
#34276835933
b- a8
#34276835958
bX a10
#34276836001
bZ a8
#34276838404
b- a63
#34276838405
b- a10
#34276838420
bX a63
#34276846397
b- a63
#34276846413
bX a10
#34276846540
bZ a63
#34276846585
b- a8
#34276846585
b- a10
#34276846606
bX a8
#34276847118
b- a8
#34276847131
bX a10
#34276847156
bZ a8
#34276847512
b- a63
#34276847513
b- a10
#34276847521
bX a63
#34276864947
b- a63
#34276864966
bX a10
#34276865116
bZ a63
#34276866668
b- a8
#34276866669
b- a10
#34276866683
bX a8
#34276867106
b- a8
#34276867120
bX a10
#34276867163
bZ a8
#34276869822
b- a61
#34276869822
b- a10
#34276869836
bX a61
#34276871750
b- a93
#34276871751
b- a61
#34276871766
bX a93
#34276871881
bZ a61
#34276872191
b- a93
#34276872203
bX a10
#34276872403
bZ a93
#34276878260
b- a8
#34276878263
b- a10
#34276878281
bX a8
#34276878582
b- a8
#34276878611
bX a10
#34276878751
bZ a8
#34276878858
b- a63
#34276878859
b- a10
#34276878876
bX a63
#34276908009
b- a63
#34276908026
bX a10
#34276908087
bZ a63
#34276908861
b- a8
#34276908862
b- a10
#34276908882
bX a8
#34276909090
b- a8
#34276909112
bX a10
#34276909178
bZ a8
#34276913762
b- a63
#34276913763
b- a10
#34276913777
bX a63
#34276920283
b- a63
#34276920292
bX a10
#34276920451
bZ a63
#34276920463
b- a8
#34276920464
b- a10
#34276920481
bX a8
#34276920629
b- a63
#34276920630
b- a8
#34276920683
bX a63
#34276920691
bZ a8
#34276928639
bZ a28
#34276928857
bZ a31
#34276928857
bZ a30
#34276928890
bZ a29
#34276928897
bX a65
#34276928904
bZ a23
#34276928904
bZ a10
#34276928908
b- a65
#34276929036
bX a26
#34276939466
bZ a27
